{
	"photos": {
		"page": 1,
		"pages": 9256,
		"perpage": 24,
		"total": "222142",
		"photo": [{
			"id": "50098701911",
			"owner": "66118069@N05",
			"secret": "052aac36cd",
			"server": "65535",
			"farm": 66,
			"title": "Curious cat",
			"ispublic": 1,
			"isfriend": 0,
			"isfamily": 0
		}, {
			"id": "50098113643",
			"owner": "8318671@N07",
			"secret": "474cb3685d",
			"server": "65535",
			"farm": 66,
			"title": "4756",
			"ispublic": 1,
			"isfriend": 0,
			"isfamily": 0
		}, {
			"id": "50098671976",
			"owner": "51388540@N05",
			"secret": "d3ee01a01c",
			"server": "65535",
			"farm": 66,
			"title": "8518 - Caprica",
			"ispublic": 1,
			"isfriend": 0,
			"isfamily": 0
		}, {
			"id": "50098549321",
			"owner": "156443183@N08",
			"secret": "2d62f92a9a",
			"server": "65535",
			"farm": 66,
			"title": "goose",
			"ispublic": 1,
			"isfriend": 0,
			"isfamily": 0
		}, {
			"id": "50098521346",
			"owner": "8446167@N04",
			"secret": "b94111dc22",
			"server": "65535",
			"farm": 66,
			"title": "CallieCat&Tosca_SAF7019",
			"ispublic": 1,
			"isfriend": 0,
			"isfamily": 0
		}, {
			"id": "50097965233",
			"owner": "91280126@N05",
			"secret": "58a407f2cb",
			"server": "65535",
			"farm": 66,
			"title": "camuflaje #366photos2020",
			"ispublic": 1,
			"isfriend": 0,
			"isfamily": 0
		}, {
			"id": "50097927673",
			"owner": "50827208@N05",
			"secret": "1d7852902f",
			"server": "65535",
			"farm": 66,
			"title": "Cheetah Cubs",
			"ispublic": 1,
			"isfriend": 0,
			"isfamily": 0
		}, {
			"id": "50098734537",
			"owner": "54947535@N05",
			"secret": "a0961552c6",
			"server": "65535",
			"farm": 66,
			"title": "I am Blue, hear me ROAR!!",
			"ispublic": 1,
			"isfriend": 0,
			"isfamily": 0
		}, {
			"id": "50098506796",
			"owner": "86999561@N08",
			"secret": "a5aa62c2d2",
			"server": "65535",
			"farm": 66,
			"title": "Daisy",
			"ispublic": 1,
			"isfriend": 0,
			"isfamily": 0
		}, {
			"id": "50098440856",
			"owner": "136489517@N02",
			"secret": "ff14337dd7",
			"server": "65535",
			"farm": 66,
			"title": "68 0007\/ 001 and 88 007",
			"ispublic": 1,
			"isfriend": 0,
			"isfamily": 0
		}, {
			"id": "50098465576",
			"owner": "34427470616@N01",
			"secret": "295ec9cdd8",
			"server": "65535",
			"farm": 66,
			"title": "Ami Imaginaire street art, Shoreditch",
			"ispublic": 1,
			"isfriend": 0,
			"isfamily": 0
		}, {
			"id": "50098626827",
			"owner": "23446766@N08",
			"secret": "f192f1bfb5",
			"server": "65535",
			"farm": 66,
			"title": "Hanging on the Steps",
			"ispublic": 1,
			"isfriend": 0,
			"isfamily": 0
		}, {
			"id": "50098356951",
			"owner": "23446766@N08",
			"secret": "513430d104",
			"server": "65535",
			"farm": 66,
			"title": "Waiting for the Coreopsis to Bloom",
			"ispublic": 1,
			"isfriend": 0,
			"isfamily": 0
		}, {
			"id": "50097197858",
			"owner": "34588343@N05",
			"secret": "97210dc1d6",
			"server": "65535",
			"farm": 66,
			"title": "SEmotion Libellune Miss Kitty Animesh",
			"ispublic": 1,
			"isfriend": 0,
			"isfamily": 0
		}, {
			"id": "50097865178",
			"owner": "39415781@N06",
			"secret": "d93d6af7fc",
			"server": "65535",
			"farm": 66,
			"title": "Return to Castle Bromwich Hall Gardens - black and white cat",
			"ispublic": 1,
			"isfriend": 0,
			"isfamily": 0
		}, {
			"id": "50097864848",
			"owner": "39415781@N06",
			"secret": "95e0d92b8f",
			"server": "65535",
			"farm": 66,
			"title": "Return to Castle Bromwich Hall Gardens - black and white cat",
			"ispublic": 1,
			"isfriend": 0,
			"isfamily": 0
		}, {
			"id": "50097833328",
			"owner": "111642264@N04",
			"secret": "ccb7b12164",
			"server": "65535",
			"farm": 66,
			"title": "Booh II",
			"ispublic": 1,
			"isfriend": 0,
			"isfamily": 0
		}, {
			"id": "50098585762",
			"owner": "16445093@N03",
			"secret": "be4ed94035",
			"server": "65535",
			"farm": 66,
			"title": "King157 Vaughn Bode Tribute",
			"ispublic": 1,
			"isfriend": 0,
			"isfamily": 0
		}, {
			"id": "50098585662",
			"owner": "16445093@N03",
			"secret": "c69a017327",
			"server": "65535",
			"farm": 66,
			"title": "Rockin' The Most",
			"ispublic": 1,
			"isfriend": 0,
			"isfamily": 0
		}, {
			"id": "50097775293",
			"owner": "16445093@N03",
			"secret": "88fdb23f72",
			"server": "65535",
			"farm": 66,
			"title": "King157 Vaughn Bode Tribute",
			"ispublic": 1,
			"isfriend": 0,
			"isfamily": 0
		}, {
			"id": "50097775198",
			"owner": "16445093@N03",
			"secret": "413f9b7c66",
			"server": "65535",
			"farm": 66,
			"title": "King157 Vaughn Bode Tribute",
			"ispublic": 1,
			"isfriend": 0,
			"isfamily": 0
		}, {
			"id": "50098357641",
			"owner": "16445093@N03",
			"secret": "7f5815b5f9",
			"server": "65535",
			"farm": 66,
			"title": "King157 Vaughn Bode Tribute",
			"ispublic": 1,
			"isfriend": 0,
			"isfamily": 0
		}, {
			"id": "50097774783",
			"owner": "16445093@N03",
			"secret": "8e8b442074",
			"server": "65535",
			"farm": 66,
			"title": "King157",
			"ispublic": 1,
			"isfriend": 0,
			"isfamily": 0
		}, {
			"id": "50098356981",
			"owner": "16445093@N03",
			"secret": "95e198a72e",
			"server": "65535",
			"farm": 66,
			"title": "King157 Vaughn Bode Tribute",
			"ispublic": 1,
			"isfriend": 0,
			"isfamily": 0
		}]
	},
	"stat": "ok"
}